{
  "count": 1302,
  "next": "/pokemon?offset=20&limit=20",
  "previous": null,
  "results": [
    {
      "name": "bulbasaur",
      "url": "/pokemon/1/"
    },
    {
      "name": "ivysaur",
      "url": "/pokemon/2/"
    },
    {
      "name": "venusaur",
      "url": "/pokemon/3/"
    },
    {
      "name": "charmander",
      "url": "/pokemon/4/"
    },
    {
      "name": "charmeleon",
      "url": "/pokemon/5/"
    },
    {
      "name": "charizard",
      "url": "/pokemon/6/"
    },
    {
      "name": "squirtle",
      "url": "/pokemon/7/"
    },
    {
      "name": "wartortle",
      "url": "/pokemon/8/"
    },
    {
      "name": "blastoise",
      "url": "/pokemon/9/"
    },
    {
      "name": "caterpie",
      "url": "/pokemon/10/"
    },
    {
      "name": "metapod",
      "url": "/pokemon/11/"
    },
    {
      "name": "butterfree",
      "url": "/pokemon/12/"
    },
    {
      "name": "weedle",
      "url": "/pokemon/13/"
    },
    {
      "name": "kakuna",
      "url": "/pokemon/14/"
    },
    {
      "name": "beedrill",
      "url": "/pokemon/15/"
    },
    {
      "name": "pidgey",
      "url": "/pokemon/16/"
    },
    {
      "name": "pidgeotto",
      "url": "/pokemon/17/"
    },
    {
      "name": "pidgeot",
      "url": "/pokemon/18/"
    },
    {
      "name": "rattata",
      "url": "/pokemon/19/"
    },
    {
      "name": "raticate",
      "url": "/pokemon/20/"
    }
  ]
}